<?xml version="1.0" encoding="UTF-8" standalone="no"?>
<!DOCTYPE svg PUBLIC "-//W3C//DTD SVG 1.1//EN"
 "http://www.w3.org/Graphics/SVG/1.1/DTD/svg11.dtd">
<!-- Generated by graphviz version 2.38.0 (20140413.2041)
 -->
<!-- Title: controllers_diagram Pages: 1 -->
<svg width="377pt" height="275pt"
 viewBox="0.00 0.00 376.89 275.00" xmlns="http://www.w3.org/2000/svg" xmlns:xlink="http://www.w3.org/1999/xlink">
<g id="graph0" class="graph" transform="scale(1 1) rotate(0) translate(114 161)">
<title>controllers_diagram</title>
<polygon fill="none" stroke="none" points="-114,114 -114,-161 262.894,-161 262.894,114 -114,114"/>
<!-- _diagram_info -->
<g id="node1" class="node"><title>_diagram_info</title>
<text text-anchor="start" x="-102" y="-19.6" font-family="Times,serif" font-size="13.00">Controllers diagram</text>
<text text-anchor="start" x="-102" y="-5.6" font-family="Times,serif" font-size="13.00">Date: Dec 06 2018 &#45; 12:46</text>
<text text-anchor="start" x="-102" y="8.4" font-family="Times,serif" font-size="13.00">Migration version: 20181205214805</text>
<text text-anchor="start" x="-102" y="22.4" font-family="Times,serif" font-size="13.00">Generated by RailRoady 1.5.3</text>
<text text-anchor="start" x="-102" y="36.4" font-family="Times,serif" font-size="13.00">http://railroady.prestonlee.com</text>
</g>
<!-- PostsController -->
<g id="node2" class="node"><title>PostsController</title>
<ellipse fill="none" stroke="black" cx="-33" cy="-117" rx="65.7887" ry="18"/>
<text text-anchor="middle" x="-33" y="-113.3" font-family="Times,serif" font-size="14.00">PostsController</text>
</g>
<!-- CommentsController -->
<g id="node3" class="node"><title>CommentsController</title>
<ellipse fill="none" stroke="black" cx="141" cy="-73" rx="85.5853" ry="18"/>
<text text-anchor="middle" x="141" y="-69.3" font-family="Times,serif" font-size="14.00">CommentsController</text>
</g>
<!-- HomeController -->
<g id="node4" class="node"><title>HomeController</title>
<ellipse fill="none" stroke="black" cx="190" cy="-139" rx="68.7879" ry="18"/>
<text text-anchor="middle" x="190" y="-135.3" font-family="Times,serif" font-size="14.00">HomeController</text>
</g>
<!-- ApplicationController -->
<g id="node5" class="node"><title>ApplicationController</title>
<ellipse fill="none" stroke="black" cx="88" cy="92" rx="88.2844" ry="18"/>
<text text-anchor="middle" x="88" y="95.7" font-family="Times,serif" font-size="14.00">ApplicationController</text>
</g>
</g>
</svg>
